[
{
    "model": "common.city",
    "pk": 1,
    "fields": {
        "name": "Puerto Ayacucho",
        "state": 1
    }
},
{
    "model": "common.city",
    "pk": 2,
    "fields": {
        "name": "Barcelona",
        "state": 2
    }
},
{
    "model": "common.city",
    "pk": 3,
    "fields": {
        "name": "San Fernando de Apure",
        "state": 3
    }
},
{
    "model": "common.city",
    "pk": 4,
    "fields": {
        "name": "Maracay",
        "state": 4
    }
},
{
    "model": "common.city",
    "pk": 5,
    "fields": {
        "name": "Barinas",
        "state": 5
    }
},
{
    "model": "common.city",
    "pk": 6,
    "fields": {
        "name": "Ciudad Bol\u00edvar",
        "state": 6
    }
},
{
    "model": "common.city",
    "pk": 7,
    "fields": {
        "name": "Valencia",
        "state": 7
    }
},
{
    "model": "common.city",
    "pk": 8,
    "fields": {
        "name": "San Carlos",
        "state": 8
    }
},
{
    "model": "common.city",
    "pk": 9,
    "fields": {
        "name": "Tucupita",
        "state": 9
    }
},
{
    "model": "common.city",
    "pk": 10,
    "fields": {
        "name": "Caracas",
        "state": 10
    }
},
{
    "model": "common.city",
    "pk": 11,
    "fields": {
        "name": "Coro",
        "state": 12
    }
},
{
    "model": "common.city",
    "pk": 12,
    "fields": {
        "name": "San Juan de Los Morros",
        "state": 13
    }
},
{
    "model": "common.city",
    "pk": 13,
    "fields": {
        "name": "Barquisimeto",
        "state": 14
    }
},
{
    "model": "common.city",
    "pk": 14,
    "fields": {
        "name": "M\u00e9rida",
        "state": 15
    }
},
{
    "model": "common.city",
    "pk": 15,
    "fields": {
        "name": "Los Teques",
        "state": 16
    }
},
{
    "model": "common.city",
    "pk": 16,
    "fields": {
        "name": "Matur\u00edn",
        "state": 17
    }
},
{
    "model": "common.city",
    "pk": 17,
    "fields": {
        "name": "La Asunci\u00f3n",
        "state": 18
    }
},
{
    "model": "common.city",
    "pk": 18,
    "fields": {
        "name": "Guanare",
        "state": 19
    }
},
{
    "model": "common.city",
    "pk": 19,
    "fields": {
        "name": "Cuman\u00e1",
        "state": 20
    }
},
{
    "model": "common.city",
    "pk": 20,
    "fields": {
        "name": "San Crist\u00f3bal",
        "state": 21
    }
},
{
    "model": "common.city",
    "pk": 21,
    "fields": {
        "name": "Trujillo",
        "state": 22
    }
},
{
    "model": "common.city",
    "pk": 22,
    "fields": {
        "name": "La Guaira",
        "state": 23
    }
},
{
    "model": "common.city",
    "pk": 23,
    "fields": {
        "name": "San Felipe",
        "state": 24
    }
}
]
