[
    {
        "model": "common.country",
        "pk": 1,
        "fields": {
            "name": "Venezuela",
            "active": true
        }
    },
    {
        "model": "common.country",
        "pk": 2,
        "fields": {
            "name": "Colombia",
            "active": false
        }
    }
]
