[
{
    "model": "person.contact",
    "pk": 1,
    "fields": {
        "first_name": "Jesus",
        "last_name": "Guedez",
        "dni": "25960343",
        "phone": "+584145454",
        "address": 1,
        "created_on": "2018-08-23T15:52:12.340Z",
        "updated_on": "2018-08-23T15:52:12.341Z",
        "company": 1
    }
},
{
    "model": "person.contact",
    "pk": 2,
    "fields": {
        "first_name": "Leydy",
        "last_name": "Moreno",
        "dni": "234234212",
        "phone": "+5312123",
        "address": 3,
        "created_on": "2018-08-23T15:52:12.340Z",
        "updated_on": "2018-08-23T15:52:12.341Z",
        "company": 3
    }
},
{
    "model": "person.contact",
    "pk": 3,
    "fields": {
        "first_name": "Michel",
        "last_name": "Betancourt",
        "dni": "2342123",
        "phone": "+53123123",
        "address": 2,
        "created_on": "2018-08-23T15:52:12.340Z",
        "updated_on": "2018-08-23T15:52:12.341Z",
        "company": 2
    }
},
{
    "model": "person.contact",
    "pk": 4,
    "fields": {
        "first_name": "Gian",
        "last_name": "FranCarlos",
        "dni": "204212323",
        "phone": "+58123123213",
        "address": 4,
        "created_on": "2018-08-23T15:52:12.340Z",
        "updated_on": "2018-08-23T15:52:12.341Z",
        "company": 3
    }
}
]