[
{
    "model": "person.lead",
    "pk": 1,
    "fields": {
        "contact": 1,
        "email": "jguedez@negocioselectronicos.biz",
        "source": 2
    }
},
{
    "model": "person.lead",
    "pk": 2,
    "fields": {
        "contact": 3,
        "email": "mbetancourt@negocioselectronicos.biz",
        "source": 1
    }
},
{
    "model": "person.lead",
    "pk": 3,
    "fields": {
        "contact": 4,
        "email": "ggasbarri@negocioselectronicos.biz",
        "source": 4
    }
}   
]